Final Project
…
 [1] 25-34 25-34 35-44 25-34 45-54 35-44 55-64 25-34 45-54 21-24 45-54 45-54
[13] 55-64 25-34 55-64 55-64 25-34 45-54 25-34 45-54 35-44 45-54 35-44 25-34
[25] 21-24 25-34 35-44 35-44 35-44 25-34 35-44 45-54 55-64 55-64 35-44 25-34
[37] 25-34 35-44 35-44 35-44 25-34 25-34 55-64 25-34 35-44 35-44 45-54 55-64
[49] 45-54 35-44 21-24 45-54 45-54 35-44 45-54 35-44 55-64 65+   45-54 35-44
[61] 35-44 21-24 21-24 25-34 55-64 55-64 45-54 45-54 25-34 45-54 35-44 35-44
[73] 45-54 21-24 45-54 65+   35-44 45-54 35-44 45-54 45-54 35-44 35-44 55-64
[85] 45-54 45-54 35-44 65+   35-44 55-64 45-54 35-44
Levels: 21-24 25-34 35-44 45-54 55-64 65+

# A tibble: 92 × 114
      id yrs_combine inclusion current_role   consent_date age   gender race_eth
   <int> <chr>       <chr>     <chr>          <chr>        <fct> <fct>  <chr>   
 1     1 0-5 years   ""        Classroom Tea… 5/1/24       25-34 Female White o…
 2     2 6-10 years  ""        Classroom Tea… 5/1/24       25-34 Female White o…
 3     3 6-10 years  ""        Classroom Tea… 5/1/24       35-44 Female White o…
 4     4 0-5 years   ""        Classroom Tea… 5/1/24       25-34 Female White o…
 5     5 11+ years   ""        Classroom Tea… 5/1/24       45-54 Femal… White o…
 6     6 6-10 years  ""        Classroom Tea… 5/1/24       35-44 Male,… White o…
 7     7 11+ years   ""        Classroom Tea… 5/1/24       55-64 Female White o…
 8     8 0-5 years   ""        Classroom Tea… 5/1/24       25-34 Female White o…
 9     9 11+ years   ""        Classroom Tea… 5/1/24       45-54 Female White o…
10    10 0-5 years   ""        Classroom Tea… 5/1/24       21-24 Female White o…
# ℹ 82 more rows
# ℹ 106 more variables: sex_orient <chr>, educator_status <chr>,
#   high_lved <chr>, yrs_teach <chr>, current_class <chr>,
#   current_class_other <chr>, teach_stud <chr>, school_type <chr>,
#   school_type_other <chr>, school_loc <chr>, school_level <chr>,
#   school_level_other <chr>, grades_teach <chr>, school_size <chr>,
#   mh_syst <chr>, mh_prac <chr>, mh_prac_other <chr>, pro_1 <chr>, …

b. Measure Cleaning

i. Emotional Regulation Questionnaire (ERQ)

# A tibble: 92 × 115
      id yrs_combine mean_mhl_id inclusion current_role       consent_date age  
   <int> <chr>             <dbl> <chr>     <chr>              <chr>        <fct>
 1     1 0-5 years          5    ""        Classroom Teacher… 5/1/24       25-34
 2     2 6-10 years         5.33 ""        Classroom Teacher… 5/1/24       25-34
 3     3 6-10 years         5.07 ""        Classroom Teacher… 5/1/24       35-44
 4     4 0-5 years          5.47 ""        Classroom Teacher… 5/1/24       25-34
 5     5 11+ years          5.33 ""        Classroom Teacher… 5/1/24       45-54
 6     6 6-10 years         6.13 ""        Classroom Teacher… 5/1/24       35-44
 7     7 11+ years          5.87 ""        Classroom Teacher… 5/1/24       55-64
 8     8 0-5 years          5.27 ""        Classroom Teacher… 5/1/24       25-34
 9     9 11+ years         NA    ""        Classroom Teacher… 5/1/24       45-54
10    10 0-5 years          4.67 ""        Classroom Teacher… 5/1/24       21-24
# ℹ 82 more rows
# ℹ 108 more variables: gender <fct>, race_eth <chr>, sex_orient <chr>,
#   educator_status <chr>, high_lved <chr>, yrs_teach <chr>,
#   current_class <chr>, current_class_other <chr>, teach_stud <chr>,
#   school_type <chr>, school_type_other <chr>, school_loc <chr>,
#   school_level <chr>, school_level_other <chr>, grades_teach <chr>,
#   school_size <chr>, mh_syst <chr>, mh_prac <chr>, mh_prac_other <chr>, …

i. Professional Quality of Life Scale (ProQOL)

# A tibble: 92 × 116
      id yrs_combine mean_mhl_id inclusion current_role       consent_date age  
   <int> <chr>             <dbl> <chr>     <chr>              <chr>        <fct>
 1     1 0-5 years          5    ""        Classroom Teacher… 5/1/24       25-34
 2     2 6-10 years         5.33 ""        Classroom Teacher… 5/1/24       25-34
 3     3 6-10 years         5.07 ""        Classroom Teacher… 5/1/24       35-44
 4     4 0-5 years          5.47 ""        Classroom Teacher… 5/1/24       25-34
 5     5 11+ years          5.33 ""        Classroom Teacher… 5/1/24       45-54
 6     6 6-10 years         6.13 ""        Classroom Teacher… 5/1/24       35-44
 7     7 11+ years          5.87 ""        Classroom Teacher… 5/1/24       55-64
 8     8 0-5 years          5.27 ""        Classroom Teacher… 5/1/24       25-34
 9     9 11+ years         NA    ""        Classroom Teacher… 5/1/24       45-54
10    10 0-5 years          4.67 ""        Classroom Teacher… 5/1/24       21-24
# ℹ 82 more rows
# ℹ 109 more variables: gender <fct>, race_eth <chr>, sex_orient <chr>,
#   educator_status <chr>, high_lved <chr>, yrs_teach <chr>,
#   current_class <chr>, current_class_other <chr>, teach_stud <chr>,
#   school_type <chr>, school_type_other <chr>, school_loc <chr>,
#   school_level <chr>, school_level_other <chr>, grades_teach <chr>,
#   school_size <chr>, mh_syst <chr>, mh_prac <chr>, mh_prac_other <chr>, …
…
27
1

45
1

49
1

NA
1

# A tibble: 26 × 2
   sum_comp_satis     n
            <dbl> <int>
 1             36    10
 2             39    10
 3             40     9
 4             37     7
 5             38     7
 6             42     5
 7             29     4
 8             35     4
 9             43     4
10             31     3
# ℹ 16 more rows
…
25
1

39
1

41
1

NA
1

# A tibble: 24 × 2
   sum_burnout     n
         <dbl> <int>
 1          29     8
 2          32     8
 3          33     8
 4          34     8
 5          30     7
 6          27     6
 7          28     6
 8          24     5
 9          26     5
10          36     5
# ℹ 14 more rows
…
# A tibble: 26 × 2
   sum_sectrauma     n
           <dbl> <int>
 1            19     8
 2            21     7
 3            26     7
 4            23     6
 5            25     6
 6            31     6
 7            27     5
 8            20     4
 9            22     4
10            24     4
# ℹ 16 more rows

# A tibble: 26 × 2
   sum_sectrauma     n
           <dbl> <int>
 1            19     8
 2            21     7
 3            26     7
 4            23     6
 5            25     6
 6            31     6
 7            27     5
 8            20     4
 9            22     4
10            24     4
# ℹ 16 more rows
…
